<?xml version="1.0" encoding="UTF-8"?>
<svg width="18px" height="14px" viewBox="0 0 18 14" version="1.1" xmlns="http://www.w3.org/2000/svg" xmlns:xlink="http://www.w3.org/1999/xlink">
    <!-- Generator: sketchtool 59.1 (101010) - https://sketch.com -->
    <title>9A6A7E77-D609-469F-91C9-2E3A1B3B6A08</title>
    <desc>Created with sketchtool.</desc>
    <defs>
        <rect id="path-1" x="0" y="0" width="20" height="20"></rect>
    </defs>
    <g id="Welcome" stroke="none" stroke-width="1" fill="none" fill-rule="evenodd">
        <g id="4everin_subpage_mobile" transform="translate(-24.000000, -1316.000000)">
            <g id="Paticka" transform="translate(0.000000, 1171.000000)">
                <g id="Rychly-kontakt" transform="translate(23.000000, 83.000000)">
                    <g id="Mail_icon_black" transform="translate(0.000000, 59.000000)">
                        <g id="basic-/-mail">
                            <mask id="mask-2" fill="white">
                                <use xlink:href="#path-1"></use>
                            </mask>
                            <g id="basic-/-mail-(Background/Mask)"></g>
                            <path d="M1.66666667,5 C1.66666667,4.07952547 2.4128588,3.33333333 3.33333333,3.33333333 L16.6666667,3.33333333 C17.587142,3.33333333 18.3333333,4.07952547 18.3333333,5 L18.3333333,15 C18.3333333,15.9204745 17.587142,16.6666667 16.6666667,16.6666667 L3.33333373,16.6666667 C2.4128592,16.6666667 1.66666667,15.9204745 1.66666667,15 L1.66666667,5 C1.66666667,4.38635031 1.66666667,4.38635031 1.66666667,5 Z M16.6666667,6.5570873 L16.6666667,15 L3.33333333,15 L3.33333333,6.55708949 L9.99999762,11.0015329 L16.6666667,6.5570873 L16.6666667,6.5570873 Z M15.9976705,5 L4.00232514,5 L9.99999762,8.99844845 L15.9976705,5 L15.9976705,5 Z" fill="#191919" mask="url(#mask-2)"></path>
                        </g>
                    </g>
                </g>
            </g>
        </g>
    </g>
</svg>